// Jest Snapshot v1, https://goo.gl/fbAQLP

exports[`Renders Home 1`] = `
Object {
  "asFragment": [Function],
  "baseElement": <body>
    <div>
      <main
        class="sc-bdvvtL dGaEmy"
        data-testid="home-root"
      >
        <div
          class="sc-bdvvtL dGaEmy"
          data-testid="grocery-list-container"
        >
          <h1
            class="title has-text-centered"
          >
            Grocery List
          </h1>
          <div
            class="sc-bdvvtL hfuQBa"
            data-testid="grocery-add-form"
          >
            <form>
              <div
                class="field has-addons"
              >
                <div
                  class="control is-expanded"
                >
                  <input
                    class="input is-large"
                    name="grocery"
                    placeholder="Add a grocery item"
                    type="search"
                  />
                </div>
                <div
                  class="control"
                >
                  <button
                    class="button is-large is-info"
                  >
                    OK
                  </button>
                </div>
              </div>
            </form>
          </div>
          <div
            class="sc-bdvvtL cReZXb"
            display="flex"
          >
            <div
              class="sc-bdvvtL cReZXb"
              display="flex"
            >
              <div
                class="sc-gsDKAQ fViWtz"
                width="4"
              />
            </div>
          </div>
          <div
            class="sc-gsDKAQ dRFVBu"
            height="8"
          />
          <div
            class="sc-bdvvtL dGaEmy"
            data-testid="grocery-list"
          >
            <div
              class="message is-info"
              data-testid="message"
            >
              <div
                class="message-body"
              >
                Your grocery list is empty.
              </div>
            </div>
            <div
              class="sc-bdvvtL dGaEmy"
              data-testid="groceries"
            />
          </div>
        </div>
      </main>
    </div>
  </body>,
  "container": <div>
    <main
      class="sc-bdvvtL dGaEmy"
      data-testid="home-root"
    >
      <div
        class="sc-bdvvtL dGaEmy"
        data-testid="grocery-list-container"
      >
        <h1
          class="title has-text-centered"
        >
          Grocery List
        </h1>
        <div
          class="sc-bdvvtL hfuQBa"
          data-testid="grocery-add-form"
        >
          <form>
            <div
              class="field has-addons"
            >
              <div
                class="control is-expanded"
              >
                <input
                  class="input is-large"
                  name="grocery"
                  placeholder="Add a grocery item"
                  type="search"
                />
              </div>
              <div
                class="control"
              >
                <button
                  class="button is-large is-info"
                >
                  OK
                </button>
              </div>
            </div>
          </form>
        </div>
        <div
          class="sc-bdvvtL cReZXb"
          display="flex"
        >
          <div
            class="sc-bdvvtL cReZXb"
            display="flex"
          >
            <div
              class="sc-gsDKAQ fViWtz"
              width="4"
            />
          </div>
        </div>
        <div
          class="sc-gsDKAQ dRFVBu"
          height="8"
        />
        <div
          class="sc-bdvvtL dGaEmy"
          data-testid="grocery-list"
        >
          <div
            class="message is-info"
            data-testid="message"
          >
            <div
              class="message-body"
            >
              Your grocery list is empty.
            </div>
          </div>
          <div
            class="sc-bdvvtL dGaEmy"
            data-testid="groceries"
          />
        </div>
      </div>
    </main>
  </div>,
  "debug": [Function],
  "findAllByAltText": [Function],
  "findAllByDisplayValue": [Function],
  "findAllByLabelText": [Function],
  "findAllByPlaceholderText": [Function],
  "findAllByRole": [Function],
  "findAllByTestId": [Function],
  "findAllByText": [Function],
  "findAllByTitle": [Function],
  "findByAltText": [Function],
  "findByDisplayValue": [Function],
  "findByLabelText": [Function],
  "findByPlaceholderText": [Function],
  "findByRole": [Function],
  "findByTestId": [Function],
  "findByText": [Function],
  "findByTitle": [Function],
  "getAllByAltText": [Function],
  "getAllByDisplayValue": [Function],
  "getAllByLabelText": [Function],
  "getAllByPlaceholderText": [Function],
  "getAllByRole": [Function],
  "getAllByTestId": [Function],
  "getAllByText": [Function],
  "getAllByTitle": [Function],
  "getByAltText": [Function],
  "getByDisplayValue": [Function],
  "getByLabelText": [Function],
  "getByPlaceholderText": [Function],
  "getByRole": [Function],
  "getByTestId": [Function],
  "getByText": [Function],
  "getByTitle": [Function],
  "queryAllByAltText": [Function],
  "queryAllByDisplayValue": [Function],
  "queryAllByLabelText": [Function],
  "queryAllByPlaceholderText": [Function],
  "queryAllByRole": [Function],
  "queryAllByTestId": [Function],
  "queryAllByText": [Function],
  "queryAllByTitle": [Function],
  "queryByAltText": [Function],
  "queryByDisplayValue": [Function],
  "queryByLabelText": [Function],
  "queryByPlaceholderText": [Function],
  "queryByRole": [Function],
  "queryByTestId": [Function],
  "queryByText": [Function],
  "queryByTitle": [Function],
  "rerender": [Function],
  "unmount": [Function],
}
`;
